"resource/PointsTransfer.res"
{
	"HudPointsTransfer"
	{
		"ControlName"		"CHudPointsTransfer"
		"fieldName"		"HudPointsTransfer"
		"xpos"		"245"
		"ypos"		"140"
		"wide"		"165"
		"tall"		"90"
		"autoResize"		"0"
		"pinCorner"		"0"
		"visible"		"1"
		"enabled"		"1"
		"settitlebarvisible"		"1"
		"title"		"#GameUI_TransferPointsTitle"
	}
	"Label1"
	{
		"ControlName"		"Label"
		"fieldName"		"Label1"
		"xpos"		"10"
		"ypos"		"20"
		"wide"		"65"
		"tall"		"65"
		"visible"		"1"
		"enabled"		"1"
		"labelText"		"#GameUI_TransferLabel"
		"textAlignment"		"west"
		"Font"		"DefaultSmall"
		"wrap"		"1"
		"associate"	"TransferAmountField"
	}
	"TransferAmountField"
	{
		"ControlName"		"TextEntry"
		"fieldName"		"TransferAmountField"
		"xpos"		"80"
		"ypos"		"25"
		"wide"		"75"
		"tall"		"15"
		"autoResize"		"0"
		"pinCorner"		"0"
		"visible"		"1"
		"enabled"		"1"
		"tabPosition"		"1"
		"textHidden"		"0"
		"editable"		"1"
		"maxchars"		"6"
		"NumericInputOnly"		"1"
		"unicode"		"0"
	}
	"TransferNowButton"
	{
		"ControlName"		"oc_Rollover_Button"
		"fieldName"		"TransferNowButton"
		"xpos"		"80"
		"ypos"		"45"
		"wide"		"75"
		"tall"		"15"
		"autoResize"		"0"
		"pinCorner"		"0"
		"visible"		"1"
		"enabled"		"1"
		"tabPosition"		"2"
		"labelText"		"#GameUI_TransferNow"
		"textAlignment"		"center"
		"dulltext"		"0"
		"brighttext"		"0"
		"wrap"		"0"
		"centerwrap"		"0"
		"textinsetx"		"6"
		"textinsety"		"0"
		"command"		"transfernow"
		"default"		"1"
	}
	"CancelButton"
	{
		"ControlName"		"oc_Rollover_Button"
		"fieldName"		"CancelButton"
		"xpos"		"80"
		"ypos"		"65"
		"wide"		"75"
		"tall"		"15"
		"autoResize"		"0"
		"pinCorner"		"0"
		"visible"		"1"
		"enabled"		"1"
		"tabPosition"		"3"
		"labelText"		"#GameUI_Cancel"
		"textAlignment"		"center"
		"dulltext"		"0"
		"brighttext"		"0"
		"wrap"		"0"
		"centerwrap"		"0"
		"textinsetx"		"6"
		"textinsety"		"0"
		"command"		"cancelnow"
	}
}
