"VertexLitGeneric"
{
	"$alphatest" 1
	"$basetexture" "models/props_foliage/tree_pine_04_branches"
//	"$bumpmap" "models/props_foliage/tree_pine_01_branches_normal"
	"$model" 1
	"$nocull" 1
}

