// Choreo version 1
actor "barnabus"
{
  channel "speechtest"
  {
    event speak "ovillage"
    {
      time 0.893334 2.251701
      param "*test\oring_village.wav"
      fixedlength
      cctype "cc_master"
      cctoken ""
    }
  }
  channel "wink"
  {
    event flexanimation "wink"
    {
      time 1.560000 2.060000
      param ""
      flexanimations samples_use_time
      {
        "blink"        
        {
          0.1122 0.6500
          0.3665 0.6700
        }
      }
    }
  }
}

scalesettings
{
  "CChoreoView" "100"
  "RampTool" "100"
  "SceneRampTool" "100"
  "ExpressionTool" "100"
  "GestureTool" "100"
}
fps 60
snap off
