"Sprite"
{
	"$spriteorientation" "vp_parallel"
	"$spriteorigin" "[ 0.50 0.50 ]"
	"$basetexture" "sprites/mommaspout"
	"Proxies"
	{
		"AnimatedTexture"
		{
			"animatedtexturevar" "$basetexture"
			"animatedtextureframenumvar" "$frame"
			"animatedtextureframerate" 15
		}
	}
}
