"VertexLitGeneric"
{
	"$baseTexture" "models/agibs/aliengeneric2"
	"$bumpmap" "models/agibs/aliengeneric2_normal"
	"$envmaptint" "[.3 .3 .3]"
	"$envmap" "env_cubemap"
	"$normalmapalphaenvmapmask" 1
}
