"VertexLitGeneric"
{
	"$baseTexture" "models/agibs/aliengeneric1"
	"$bumpmap" "models/agibs/aliengeneric1_normal"
	"$envmaptint" "[.3 .3 .3]"
	"$envmap" "env_cubemap"
	"$normalmapalphaenvmapmask" 1
}
