"VertexLitGeneric"
{
	"$baseTexture" "models\props_bts/Fan01"


	"$bumpmap" "models\props_bts\Fan01_normal"
	"$phong" "1"
	"$phongexponenttexture" "models\props_bts\Fan01_exponent"
//	"$phongexponent" "25"
	
	"$phongboost" "10"	
	"$lightwarptexture" "models\props_bts\Fan01_lightwarp"
	"$phongfresnelranges"	"[5 1 2]"
//	"$halflambert" "1"

//	"$envmap" "env_cubemap"
//  "$normalmapalphaenvmapmask" 1

  "$selfillum" 1
}