UnlitGeneric
{
// Original shader: BaseTimesVertexColorAlphaBlendNoOverbright
	"$translucent" "1"
	"$basetexture"	"vgui\playermodels\player\female_01"
	"$vertexcolor" "1"
	"$vertexalpha" "1"
	"$no_fullbright" "1"
	"$ignorez"	"1"
	"$decalscale" "0.250"

}
