"WeaponData"
{
	// Weapon data is loaded by both the Game and Client DLLs.
	"printname"			"AWP"
	"viewmodel"			"models/weapons/v_snip_awp.mdl"
	"playermodel"			"models/weapons/w_snip_awp.mdl"
	"anim_prefix"			"sniper"
	"bucket"			"3"
	"bucket_position"		"8"

	"clip_size"			"10"
	"clip2_size"			"0"

	"default_clip"			"10"
	"default_clip2"			"0"

	"primary_ammo"			"SniperRound"
	"secondary_ammo"		"None"

	"weight"			"3"
	"item_flags"			"0"

	"BuiltRightHanded" 		"0"
	"AllowFlipping" 		"1"

	"csviewmodel"			"1"

	// Sounds for the weapon. There is a max of 16 sounds per category (i.e. max 16 "single_shot" sounds)
	"SoundData"
	{
		"reload_npc"		"Weapon_SniperRifle.NPC_Reload"
		"empty"			"Default.ClipEmpty_Rifle"
		"single_shot"		"Weapon_AWP.Single"
		"single_shot_npc"	"Weapon_AWP.Single"
		//Zoom in
		"special1"		"Default.Zoom"
		//Zoom out
		"special2"		"Default.Zoom"
	}

	// Weapon Sprite data is loaded by the Client DLL.
	"TextureData"
	{
		"weapon"
		{
				"font"		"CSWeaponIcons"
				"character"	"r"
		}
		"weapon_s"
		{	
				"font"		"CSWeaponIconsSelected"
				"character"	"r"
		}
		"ammo"
		{
				"font"		"ObsidianWeaponIcons"
				"character"	"s"
		}
		"crosshair"
		{
				"font"		"Crosshairs"
				"character"	"Q"
		}
		"autoaim"
		{
				"file"		"sprites/crosshairs"
				"x"			"0"
				"y"			"48"
				"width"		"24"
				"height"	"24"
		}
	}
	"Advanced" // only for Weapon_Scripted
	{

	// **Primary Attack**

		// 0 = none, 1 = Basic Bullet, 2 = Burst, 3 = shotgun, 4 = autoshotgun, 5 = laser, 6 = warp
		"FireType1"	"1"


		// Rate of Weapons Fire ( Not for laser or warp )
		"FireRate1"	"1.0"

		// Allow a refire as fast as the player can click, Basic Bullet Only.
		"FastFire1"	"0"

		// Allow Fire Underwater?
		"FireUnderWater1"	"0"

		// For Bullet accuracy
		"FireCone1"		"5" // Starting Value ( 0-20 )
		"FireConeLerp1"		"0" // Bool
		"FireConeLerpto1"	"3" // Value to lerp accuracy too ( 0-20 )

	// **Secondary Attack**

		// 0 = none, 1 = Basic Bullet, 2 = Burst, 3 = shotgun, 4 = autoshotgun, 5 = laser, 6 = warp, 8 = scope
		"FireType2"	"7"

		// Rate of Weapons Fire ( Not for laser or warp )
		"FireRate2"	"1.0"

		// Allow a refire as fast as the player can click, Basic Bullet Only.
		"FastFire2"	"0"

		// Allow Fire Underwater?
		"FireUnderWater2"	"0"

		// Secondary Fire uses Secondary Ammo Type. If 0, will use primary ammo.
		"SecondaryAmmoUsed"	"0"

		// For Bullet accuracy
		"FireCone2"		"1" // Starting Value ( 0-20 )
		"FireConeLerp2"		"1" // Bool
		"FireConeLerpto2"	"3" // Value to lerp accuracy too ( 0-20 )

	// **Global Weapon Settings**

		// Number of Recoil Animations, weapon models with ACT_VM_RECOIL animations.
		// ( Only if a weapon has recoil animations, Not for laser or warp )
		"NumberOfRecoilAnims"	"0"

		// Shots fired till next recoil animation. ( Only if a weapon has recoil animations )
		"RecoilIncrementSpeed"	"1"

		// 1 = Pistol, 2 = AR2, 3 = crossbow, 4 = physgun, 5 = shotgun, 6 = smg1
		// This is the player animation set that will be used on all players you view ingame.
		"PlayerAnimationSet"	"2"

		"UseScopedFireCone"	"1"
		"ScopedFireCone"	"0"
		"ScopedColorR"		"0"
		"ScopedColorG"		"0"
		"ScopedColorB"		"0"
	}
}