"WeaponData"
{
	// Weapon data is loaded by both the Game and Client DLLs.
	"printname"			"FIVE SEVEN"
	"viewmodel"			"models/weapons/v_pist_fiveseven.mdl"
	"playermodel"			"models/weapons/w_pist_fiveseven.mdl"
	"anim_prefix"			"pistol"
	"bucket"			"1"
	"bucket_position"		"11"

	"clip_size"			"20"
	"clip2_size"			"-1"

	"default_clip"			"20"
	"default_clip2"			"-1"

	"primary_ammo"			"pistol"
	"secondary_ammo"		"None"

	"weight"			"0"
	"item_flags"			"0"

	"BuiltRightHanded" 		"0"
	"AllowFlipping" 		"1"

	"csviewmodel"			"1"

   	"ironsightoffset"
	{
		"x"   "-3.50"
		"y"   "4.53"
		"z"   "3.30"
   	}


	// Sounds for the weapon. There is a max of 16 sounds per category (i.e. max 16 "single_shot" sounds)
	"SoundData"
	{
		"reload_npc"		"Weapon_Pistol.NPC_Reload"
		"empty"			"Default.ClipEmpty_Pistol"
		"single_shot"		"Weapon_FiveSeven.Single"
		"single_shot_npc"	"Weapon_FiveSeven.Single"
	}

	// Weapon Sprite data is loaded by the Client DLL.
	"TextureData"
	{
		"weapon"
		{
				"font"		"CSWeaponIcons"
				"character"	"u"
		}
		"weapon_s"
		{	
				"font"		"CSWeaponIconsSelected"
				"character"	"u"
		}
		"ammo"
		{
				"font"		"WeaponIcons"
				"character"	"p"
		}
		"crosshair"
		{
				"font"		"Crosshairs"
				"character"	"Q"
		}
		"autoaim"
		{
				"file"		"sprites/crosshairs"
				"x"			"0"
				"y"			"48"
				"width"		"24"
				"height"	"24"
		}
	}
	"Advanced" // only for Weapon_Scripted
	{

	// **Primary Attack**

		// 0 = none, 1 = Basic Bullet, 2 = Burst, 3 = shotgun, 4 = autoshotgun, 5 = laser, 6 = warp
		"FireType1"	"1"


		// Rate of Weapons Fire ( Not for laser or warp )
		"FireRate1"	"0.2"

		// Allow a refire as fast as the player can click, Single Only.
		"FastFire1"	"1"

		// Allow Fire Underwater?
		"FireUnderWater1"	"1"

		// For Bullet accuracy
		"FireCone1"		"1" // Starting Value ( 0-20 )
		"FireConeLerp1"		"1" // Bool
		"FireConeLerpto1"	"4" // Value to lerp accuracy too ( 0-20 )

	// **Secondary Attack**

		// 0 = none, 1 = Basic Bullet, 2 = Burst, 3 = shotgun, 4 = autoshotgun, 5 = laser, 6 = warp, 8 = scope
		"FireType2"	"0"

	// **Global Weapon Settings**

		// Number of Recoil Animations, weapon models with ACT_VM_RECOIL animations.
		// ( Only if a weapon has recoil animations, Not for laser or warp )
		"NumberOfRecoilAnims"	"0"

		// Shots fired till next recoil animation. ( Only if a weapon has recoil animations )
		"RecoilIncrementSpeed"	"1"

		// 1 = Pistol, 2 = AR2, 3 = crossbow, 4 = physgun, 5 = shotgun, 6 = smg1
		// This is the player animation set that will be used on all players you view ingame.
		"PlayerAnimationSet"	"1"

	}
}