"vertexlitgeneric"
{
	"$basetexture" "pk01/pk01_panel03a"
	"$bumpmap" "pk01/pk01_panel03_normal"
	
	"$normalmapalphaenvmapmask" 1 
	"$envmap" "env_cubemap"
	
	$selfillum 1
	
	"$surfaceprop" "metal"
	
	"%keywords" "pk01"
}