"VertexLitGeneric_DX6"
{
	"$baseTexture" "models/hgrunt/mask_chrome"

	"$bumpmap" "models/hgrunt/mask_chrome_normal"

	"$surfaceprop" "metal"

        "$envmap" "models/hgrunt/mask_chrome"

	"$envmapsphere"	"1"

	"$envmapmode" "1"

	"$multipass" "1"

	"$nodecal" "1"

        "$envmapsaturation" "0"

        "$additive" "1"
}
