"VertexLitGeneric"
{
	"$baseTexture" "models/hgrunt/pc_soldier_fatigues"

	"$bumpmap" "models/hgrunt/pc_soldier_fatigues_normal"

	"$detail" "detail/detail_noise1"

	"$detailscale" 2.5

	"$surfaceprop" "flesh"
}
