"VertexLitGeneric"
{
	"$baseTexture" "models/hgrunt/spas12_world"

	"$bumpmap" "models/hgrunt/spas12_world_normal"

	"$detail" "detail/detail_noise1"

	"$detailscale" 2.5

	"$surfaceprop" "metal"

	"$nodecal" "1"
}
