LightmappedGeneric
{
	"$basetexture"	"maps\cleanup\offdesktop"
	"$envmap" "env_cubemap"
	"$envmapmask" "maps\cleanup\offdesktop_ref"
	"$surfaceprop" "wood"
	"$envmaptint" "[0.53 0.37 0.22]"
}
