"LightmappedGeneric"
{
	"$basetexture" "pk01/pk01_wall04a"
	"$bumpmap" "pk01/pk01_wall04a_normal"
	
	"$normalmapalphaenvmapmask" 1 
	"$envmap" "env_cubemap"
	
	"$surfaceprop" "metal"
	
	"%keywords" "pk01"
}