"VertexLitGeneric"
{
	"$detail" "detail/detail_noise1"
	"$detailscale" 2.5
	"$basetexture" "models/big_mom/sid2"
	"$surfaceprop" "alienflesh"
	"$bumpmap" "models/big_mom/sid2_normal"
    	"$envmap" "env_cubemap"
    	"$envmaptint" "[.2 .2 .2]"
	"$normalmapalphaenvmapmask" 1
}

//obsidianconflict