"merchant_courier_2"
{
	"Name"	"Rebel Armory"

	"Weapons"
	{
		"weapon_shotgun" "20"
		"weapon_uzi" "15"
		"weapon_357" "10"
		"weapon_stunstick" "4"
		"weapon_rpg" "30"
		"weapon_healer" "35"
	}
	"Items"
	{
		"item_ammo_pistol" "1"
		"item_ammo_smg1" "1"
		"item_ammo_357" "3"
		"item_healthkit" "3"
		"item_battery" "3"

	}
}