"SDK_Particle"
{
	// The bumpmap is used in DX8+.
	"$bumpmap" "particle/BillowNormalMap"

	// In DX7-, it acts just like UnlitGeneric.
	"$basetexture" "particle/SmokeStackFallback"
	"$translucent" 1
	"$vertexcolor" 1

	"Proxies"
	{
		"ParticleSphereProxy"
		{
		}
	}
}
