"UnlitGeneric"
{
	// Original shader: BaseTimesVertexColorAlphaBlendNoOverbright
	"$translucent" 1
	"$basetexture" "VGUI\gfx\VGUI\round_corner_sw_invert"
	"$vertexcolor" 1
	"$vertexalpha" 1
	"$no_fullbright" 1
	"$ignorez" 1
}
