"Resource/UI/ScoreBoard.res"
{
	"scores"
	{
		"ControlName"		"CClientScoreBoardDialog"
		"fieldName"		"scoreinfo"
		"xpos"		"63"
		"ypos"		"42"
		"wide"		"444"
		"tall"		"360"
		"autoResize"		"0"
		"pinCorner"		"0"
		"visible"		"0"
		"enabled"		"1"
		"tabPosition"		"0"
		"avatar_width"		"34"	[$WIN32]
		"name_width"		"119"	[$WIN32]
		"status_width"		"15"	[$WIN32]
		"nemesis_width"		"15"	[$WIN32]
		"class_width"		"49"	[$WIN32]
		"score_width"		"25"
		"ping_width"		"23"	[$WIN32]
	}
	"SysMenu"
	{
		"ControlName"		"Menu"
		"fieldName"		"SysMenu"
		"xpos"		"0"
		"ypos"		"0"
		"wide"		"64"
		"tall"		"24"
		"autoResize"		"0"
		"pinCorner"		"0"
		"visible"		"0"
		"enabled"		"1"
		"tabPosition"		"0"
	}
	"ServerName"
	{
		"ControlName"		"Label"
		"fieldName"		"ServerName"
		"xpos"		"3"
		"ypos"		"2"
		"wide"		"250"
		"tall"		"24"
		"autoResize"	"0"
		"pinCorner"		"0"
		"visible"		"1"
		"enabled"		"1"
		"labelText"		""
		"textAlignment"		"north-west"
		"dulltext"		"0"
		"brighttext"	"1"
	}
	"PlayerList"
	{
		"ControlName"		"SectionedListPanel"
		"fieldName"		"PlayerList"
		"xpos"		"0"
		"ypos"		"0"
		"wide"		"444"
		"tall"		"360"
		"autoResize"		"0"
		"pinCorner"		"0"
		"visible"		"1"
		"enabled"		"1"
		"tabPosition"		"0"
		"autoresize"	"3"
		"linespacing"	"13"
	}
}
