"Resource/UI/SpectatorGUI.res"
{
	"SpectatorGUI"
	{
		"ControlName"	"Frame"
		"fieldName"		"SpectatorGUI"
		"tall"			"480"
		"autoResize"	"0"
		"pinCorner"		"0"
		"visible"		"1"
		"enabled"		"1"
		"tabPosition"	"0"
	}
	"topbar"
	{
		"ControlName"	"Panel"
		"fieldName"		"topbar"
		"xpos"			"0"
		"ypos"			"0"
		"tall"			"52"
		"wide"			"640"
		"autoResize"	"0"
		"pinCorner"		"0"
		"visible"		"1"
		"enabled"		"1"
		"tabPosition"	"0"
	}
	"bottombarblank"
	{
		"ControlName"	"Panel"
		"fieldName"		"bottombarblank"
		"xpos"			"0"
		"ypos"			"428"
		"tall"			"55"		// this needs to match the size of BottomBar
		"wide"			"640"
		"autoResize"	"0"
		"pinCorner"		"0"
		"visible"		"1"
		"enabled"		"1"
		"tabPosition"	"0"
	}
	"playerlabel"
	{
		"ControlName"	"Label"
		"fieldName"		"playerlabel"
		"xpos"			"c-108"
		"ypos"			"441"
		"wide"			"216"
		"tall"			"26"
		"autoResize"	"0"
		"pinCorner"		"0"
		"visible"		"0"
		"enabled"		"1"
		"tabPosition"	"0"
		"textAlignment"	"center"
	}
	"BlueScoreValue"
	{
		"ControlName"	"Label"
		"fieldName"		"BlueScoreValue"
		"xpos"			"r122"
		"ypos"			"12"
		"wide"			"50"
		"tall"			"15"
		"autoResize"	"0"
		"pinCorner"		"0"
		"visible"		"1"
		"enabled"		"1"
		"labelText"		""
		"textAlignment"	"west"
		"dulltext"		"0"
		"brighttext"	"0"
	}
	"RedScoreValue"
	{
		"ControlName"	"Label"
		"fieldName"		"RedScoreValue"
		"xpos"			"r122"
		"ypos"			"24"
		"wide"			"50"
		"tall"			"15"
		"autoResize"	"0"
		"pinCorner"		"0"
		"visible"		"1"
		"enabled"		"1"
		"labelText"		""
		"textAlignment"	"west"
		"dulltext"		"0"
		"brighttext"	"0"
	}
	"DividerBar"
	{
		"ControlName"	"ImagePanel"
		"fieldName"		"DividerBar"
		"xpos"			"r94"
		"ypos"			"12"
		"wide"			"1"
		"tall"			"30"
		"autoResize"	"0"
		"pinCorner"		"0"
		"visible"		"1"
		"enabled"		"1"
		"tabPosition"	"0"
		"fillcolor"		"BorderBright"
		"labelText"		""
		"textAlignment"	"center"
	}
	"timerclock"
	{
		"ControlName"	"Label"
		"fieldName"		"timerclock"
		"xpos"			"r84" //r86
		"ypos"			"20" //24
		"wide"			"28" //14
		"tall"			"28" //14
		"autoResize"	"0"
		"pinCorner"		"0"
		"visible"		"1"
		"enabled"		"1"
		"textAlignment"	"west"
		"dulltext"		"0"
		"brighttext"	"0"
		"labelText"		"z"
		"font"		"Icons"
	}
	"timerlabel"
	{
		"ControlName"	"Label"
		"fieldName"		"timerlabel"
		"xpos"			"r64" //r72
		"ypos"			"36" //24
		"wide"			"40"
		"tall"			"15"
		"autoResize"	"0"
		"pinCorner"		"0"
		"visible"		"1"
		"enabled"		"1"
		"labelText"		"00:00"
		"textAlignment"	"west"
		"dulltext"		"0"
		"brighttext"	"0"
	}
	"extrainfo"
	{
		"ControlName"	"Label"
		"fieldName"		"extrainfo"
		"xpos"			"r86"
		"ypos"			"12"
		"wide"			"81"
		"tall"			"15"
		"autoResize"	"0"
		"pinCorner"		"0"
		"visible"		"1"
		"enabled"		"1"
		"labelText"		""
		"textAlignment"	"west"
		"dulltext"		"0"
		"brighttext"	"0"
	}
	"inwaitingmode"
	{
		"ControlName"	"Label"
		"fieldName"		"inwaitingmode"
		"xpos"			"86"
		"ypos"			"12"
		"wide"			"300"
		"tall"			"30"
		"autoResize"	"0"
		"pinCorner"		"0"
		"visible"		"1"
		"enabled"		"1"
		"labelText"		"You are dead. Please wait for a spawn point to become available."
		"textAlignment"	"west"
		"dulltext"		"0"
		"brighttext"	"0"
	}
}
