"Resource/UI/TextWindow.res"
{
	"info"
	{
		"ControlName"		"CTextWindow"
		"fieldName"		"TextWindow"
		"xpos"			"0"
		"ypos"			"0"
		"wide"			"640"
		"tall"			"480"
		"autoResize"		"0"
		"pinCorner"		"0"
		"visible"		"0"
		"enabled"		"1"
		"tabPosition"	"0"
	}
		
	"HTMLMessage"
	{
		"ControlName"		"HTML"
		"fieldName"		"HTMLMessage"
		"xpos"			"76"
		"ypos"			"116"
		"wide"			"480" //250
		"tall"			"240"
		"autoResize"		"0"
		"pinCorner"		"0"
		"visible"		"1"
		"enabled"		"1"
	}
	
	"TextMessage"
	{
		"ControlName"		"TextEntry"
		"fieldName"		"TextMessage"
		"xpos"			"76"
		"ypos"			"116"
		"wide"			"480"
		"tall"			"240"
		"autoResize"		"0"
		"pinCorner"		"0"
		"visible"		"1"
		"enabled"		"1"
		"textAlignment"		"northwest"
		"textHidden"		"0"
		"editable"		"0"
		"maxchars"		"-1"
		"NumericInputOnly"	"0"
	}
	
	"MessageTitle"
	{
		"ControlName"		"Label"
		"fieldName"		"MessageTitle"
		"xpos"			"76"
		"ypos"			"35"
		"wide"			"420"
		"tall"			"24"
		"autoResize"		"0"
		"pinCorner"		"0"
		"visible"		"1"
		"enabled"		"1"
		"labelText"		"Message Title"
		"textAlignment"		"west"
		"dulltext"		"0"
		"brighttext"		"0"
		"font"			"MenuTitle"
	}
	
	"ok"
	{
		"ControlName"		"Button"
		"fieldName"		"ok"
		"xpos"			"76"
		"ypos"			"364"
		"wide"			"128"
		"tall"			"20"
		"autoResize"		"0"
		"pinCorner"		"2"
		"visible"		"1"
		"enabled"		"1"
		"labelText"		"#PropertyDialog_OK"
		"textAlignment"		"center"
		"dulltext"		"0"
		"brighttext"		"0"
		"command"		"okay"
		"default"		"1"
	}
}
