"VertexLitGeneric"
{
	"$baseTexture" "models/agrunt/agrunt_head"

	"$bumpmap" "models/agrunt/agrunt_head_normal"

	"$detail" "detail/detail_noise1"

	"$detailscale" 2.5

	"$halflambert" 1

	"$surfaceprop" "alienflesh"
}
